…
    ## ── Attaching packages ─────────────────────────────────────── tidyverse 1.3.2 ──
    ## ✔ ggplot2 3.3.6      ✔ purrr   0.3.4 
    ## ✔ tibble  3.1.8      ✔ dplyr   1.0.10
    ## ✔ tidyr   1.2.0      ✔ stringr 1.4.1 
    ## ✔ readr   2.1.2      ✔ forcats 0.5.2 
    ## ── Conflicts ────────────────────────────────────────── tidyverse_conflicts() ──
    ## ✖ dplyr::filter() masks stats::filter()
    ## ✖ dplyr::lag()    masks stats::lag()

``` r
penguins
```

    ## # A tibble: 344 × 8
    ##    species island    bill_length_mm bill_depth_mm flipper_…¹ body_…² sex    year
    ##    <fct>   <fct>              <dbl>         <dbl>      <int>   <int> <fct> <int>
    ##  1 Adelie  Torgersen           39.1          18.7        181    3750 male   2007
    ##  2 Adelie  Torgersen           39.5          17.4        186    3800 fema…  2007
    ##  3 Adelie  Torgersen           40.3          18          195    3250 fema…  2007
    ##  4 Adelie  Torgersen           NA            NA           NA      NA <NA>   2007
    ##  5 Adelie  Torgersen           36.7          19.3        193    3450 fema…  2007
    ##  6 Adelie  Torgersen           39.3          20.6        190    3650 male   2007
    ##  7 Adelie  Torgersen           38.9          17.8        181    3625 fema…  2007
    ##  8 Adelie  Torgersen           39.2          19.6        195    4675 male   2007
    ##  9 Adelie  Torgersen           34.1          18.1        193    3475 <NA>   2007
    ## 10 Adelie  Torgersen           42            20.2        190    4250 <NA>   2007
    ## # … with 334 more rows, and abbreviated variable names ¹​flipper_length_mm,
    ## #   ²​body_mass_g
## Markdown session \#2

Process penguin data

    ## # A tibble: 5 × 3
    ## # Groups:   island, species [5]
    ##   species   island    data              
    ##   <fct>     <fct>     <list>            
    ## 1 Adelie    Torgersen <tibble [52 × 6]> 
    ## 2 Adelie    Biscoe    <tibble [44 × 6]> 
    ## 3 Adelie    Dream     <tibble [56 × 6]> 
    ## 4 Gentoo    Biscoe    <tibble [124 × 6]>
    ## 5 Chinstrap Dream     <tibble [68 × 6]>

    ## # A tibble: 344 × 8
    ## # Groups:   island, species [5]
    ##    species island    bill_length_mm bill_depth_mm flipper_…¹ body_…² sex    year
    ##    <fct>   <fct>              <dbl>         <dbl>      <int>   <int> <fct> <int>
    ##  1 Adelie  Torgersen           39.1          18.7        181    3750 male   2007
    ##  2 Adelie  Torgersen           39.5          17.4        186    3800 fema…  2007
    ##  3 Adelie  Torgersen           40.3          18          195    3250 fema…  2007
    ##  4 Adelie  Torgersen           NA            NA           NA      NA <NA>   2007
    ##  5 Adelie  Torgersen           36.7          19.3        193    3450 fema…  2007
    ##  6 Adelie  Torgersen           39.3          20.6        190    3650 male   2007
    ##  7 Adelie  Torgersen           38.9          17.8        181    3625 fema…  2007
    ##  8 Adelie  Torgersen           39.2          19.6        195    4675 male   2007
    ##  9 Adelie  Torgersen           34.1          18.1        193    3475 <NA>   2007
    ## 10 Adelie  Torgersen           42            20.2        190    4250 <NA>   2007
    ## # … with 334 more rows, and abbreviated variable names ¹​flipper_length_mm,
    ## #   ²​body_mass_g
